<?xml version="1.0" encoding="UTF-8" standalone="no"?>
<!-- Created with Inkscape (http://www.inkscape.org/) -->

<svg
   xmlns:dc="http://purl.org/dc/elements/1.1/"
   xmlns:cc="http://creativecommons.org/ns#"
   xmlns:rdf="http://www.w3.org/1999/02/22-rdf-syntax-ns#"
   xmlns:svg="http://www.w3.org/2000/svg"
   xmlns="http://www.w3.org/2000/svg"
   xmlns:sodipodi="http://sodipodi.sourceforge.net/DTD/sodipodi-0.dtd"
   xmlns:inkscape="http://www.inkscape.org/namespaces/inkscape"
   width="73"
   height="73"
   viewBox="0 0 19.314582 19.314584"
   version="1.1"
   id="svg8"
   inkscape:version="0.92.4 5da689c313, 2019-01-14"
   sodipodi:docname="bk.svg"
   inkscape:export-filename="/home/loic/Documents/Git/manzerbredes/ochess/tools/skin/chesscom/bk.png"
   inkscape:export-xdpi="240"
   inkscape:export-ydpi="240">
  <defs
     id="defs2" />
  <sodipodi:namedview
     id="base"
     pagecolor="#ffffff"
     bordercolor="#666666"
     borderopacity="1.0"
     inkscape:pageopacity="0.0"
     inkscape:pageshadow="2"
     inkscape:zoom="5.6"
     inkscape:cx="12.431757"
     inkscape:cy="27.666671"
     inkscape:document-units="mm"
     inkscape:current-layer="layer1"
     showgrid="false"
     inkscape:window-width="1908"
     inkscape:window-height="1131"
     inkscape:window-x="0"
     inkscape:window-y="35"
     inkscape:window-maximized="1"
     units="px"
     inkscape:snap-global="false" />
  <metadata
     id="metadata5">
    <rdf:RDF>
      <cc:Work
         rdf:about="">
        <dc:format>image/svg+xml</dc:format>
        <dc:type
           rdf:resource="http://purl.org/dc/dcmitype/StillImage" />
        <dc:title></dc:title>
      </cc:Work>
    </rdf:RDF>
  </metadata>
  <g
     inkscape:label="Calque 1"
     inkscape:groupmode="layer"
     id="layer1"
     transform="translate(-1.0293697,-276.46598)">
    <g
       id="g1487"
       transform="translate(0.10332802,-0.29338015)">
      <path
         sodipodi:nodetypes="ccccccc"
         inkscape:connector-curvature="0"
         id="path1528"
         d="m 12.336258,283.1185 c 0.04444,-0.13338 0.0673,-0.27123 0.06796,-0.40979 3.8e-5,-0.8488 -0.815221,-1.53689 -1.820884,-1.53686 -1.0056623,-3e-5 -1.8209221,0.68806 -1.8208845,1.53686 6.897e-4,0.1652 0.03295,0.32923 0.095513,0.48576 l 1.7253715,4.87634 z"
         style="opacity:1;fill:#d1cdae;fill-opacity:1;stroke:#000000;stroke-width:0.76134908;stroke-linecap:round;stroke-linejoin:round;stroke-miterlimit:4;stroke-dasharray:none;stroke-opacity:1;paint-order:normal" />
      <path
         sodipodi:nodetypes="ccssccccssccscsc"
         inkscape:connector-curvature="0"
         id="path1534"
         d="m 5.4218908,281.81254 c -2.2049078,-1e-4 -3.9924203,1.75734 -3.9925211,3.92534 0.00318,1.40796 1.2353299,2.25814 2.0858001,3.40289 0,0 0.6295347,0.68192 0.8158316,1.09813 0.2397454,0.53563 0.3545003,1.72444 0.3545003,1.72444 l -0.1653646,2.57504 c 2.4574886,1.09159 8.8528829,1.15381 12.3315479,0 l -0.283704,-2.29185 c 0,0 0.171462,-1.39952 0.496094,-2.00763 0.238146,-0.4461 1.0212,-1.1219 1.0212,-1.1219 0.947563,-1.041 1.649847,-1.98907 1.652022,-3.37912 -1.01e-4,-2.168 -1.787614,-3.92544 -3.992522,-3.92534 -1.201555,10e-4 -2.62532,0.32308 -3.377021,1.61634 l -1.794261,3.12757 -1.9254425,-3.12757 c -0.662298,-1.0758 -1.9488702,-1.61437 -3.2261597,-1.61634 z"
         style="opacity:1;fill:#d1cdae;fill-opacity:1;stroke:#000000;stroke-width:0.80000001;stroke-linecap:round;stroke-linejoin:miter;stroke-miterlimit:4;stroke-dasharray:none;stroke-opacity:1;paint-order:normal" />
      <path
         inkscape:connector-curvature="0"
         id="path1536"
         d="m 10.583333,281.07283 v -3.6144"
         style="fill:none;stroke:#000000;stroke-width:0.80000001;stroke-linecap:round;stroke-linejoin:round;stroke-miterlimit:4;stroke-dasharray:none;stroke-opacity:1" />
      <path
         sodipodi:nodetypes="cc"
         style="fill:none;stroke:#000000;stroke-width:0.80000001;stroke-linecap:round;stroke-linejoin:round;stroke-miterlimit:4;stroke-dasharray:none;stroke-opacity:1"
         d="M 9.2722264,278.86403 H 11.89444"
         id="path1538"
         inkscape:connector-curvature="0" />
      <path
         sodipodi:nodetypes="cc"
         inkscape:connector-curvature="0"
         id="path1540"
         d="m 4.3310011,290.2389 c 4.4880765,-1.28823 8.6848849,-1.03689 12.7330739,0"
         style="fill:none;stroke:#000000;stroke-width:0.69999999;stroke-linecap:butt;stroke-linejoin:miter;stroke-miterlimit:4;stroke-dasharray:none;stroke-opacity:1" />
      <path
         style="fill:none;stroke:#000000;stroke-width:0.69999999;stroke-linecap:butt;stroke-linejoin:miter;stroke-miterlimit:4;stroke-dasharray:none;stroke-opacity:1"
         d="m 4.4727422,290.73499 c 4.4880765,-1.28823 8.2360378,-1.03689 12.2842268,0"
         id="path1542"
         inkscape:connector-curvature="0"
         sodipodi:nodetypes="cc" />
      <path
         sodipodi:nodetypes="cc"
         inkscape:connector-curvature="0"
         id="path1544"
         d="m 4.3310011,294.58326 c 4.4880765,-1.28823 8.6848849,-1.03689 12.7330739,0"
         style="fill:none;stroke:#000000;stroke-width:0.69999999;stroke-linecap:butt;stroke-linejoin:miter;stroke-miterlimit:4;stroke-dasharray:none;stroke-opacity:1" />
      <path
         sodipodi:nodetypes="cc"
         inkscape:connector-curvature="0"
         id="path1546"
         d="m 10.595145,289.31743 v -3.33091"
         style="opacity:1;vector-effect:none;fill:none;fill-opacity:1;stroke:#000000;stroke-width:0.69999999;stroke-linecap:butt;stroke-linejoin:miter;stroke-miterlimit:4;stroke-dasharray:none;stroke-dashoffset:0;stroke-opacity:1" />
      <path
         sodipodi:nodetypes="cccscc"
         inkscape:connector-curvature="0"
         id="path2521"
         d="m 4.8016091,289.04054 c 1.6595286,-0.38693 2.9381204,-0.63202 4.7734454,-0.56357 v -1.72398 c -0.6063977,-1.02439 -1.2749873,-2.00081 -1.9458477,-2.94653 -1.801599,-2.53973 -7.06453399,0.50381 -4.2271574,3.64372 z"
         style="fill:#000000;fill-opacity:1;stroke:none;stroke-width:0.24601571px;stroke-linecap:butt;stroke-linejoin:miter;stroke-opacity:1" />
      <path
         style="fill:#000000;fill-opacity:1;stroke:none;stroke-width:0.25292015px;stroke-linecap:butt;stroke-linejoin:miter;stroke-opacity:1"
         d="m 16.663957,289.12874 c -1.706104,-0.39778 -3.268982,-0.64975 -5.155816,-0.57938 v -1.79495 l 1.819801,-3.05179 c 2.241404,-2.36061 7.195055,0.33727 4.774855,3.79113 z"
         id="path2523"
         inkscape:connector-curvature="0"
         sodipodi:nodetypes="cccccc" />
      <path
         sodipodi:nodetypes="cc"
         inkscape:connector-curvature="0"
         id="path2525"
         d="m 4.4727422,290.92401 c 4.4880765,-1.28823 8.2360378,-1.03689 12.2842268,0"
         style="fill:none;stroke:#000000;stroke-width:0.69999999;stroke-linecap:butt;stroke-linejoin:miter;stroke-miterlimit:4;stroke-dasharray:none;stroke-opacity:1" />
      <path
         style="fill:none;stroke:#000000;stroke-width:0.69999999;stroke-linecap:butt;stroke-linejoin:miter;stroke-miterlimit:4;stroke-dasharray:none;stroke-opacity:1"
         d="m 4.4727422,292.54592 c 4.4880765,-1.28823 8.2360378,-1.03689 12.2842268,0"
         id="path2527"
         inkscape:connector-curvature="0"
         sodipodi:nodetypes="cc" />
      <path
         sodipodi:nodetypes="cc"
         inkscape:connector-curvature="0"
         id="path2529"
         d="m 4.4727422,293.00285 c 4.4880765,-1.28823 8.2360378,-1.03689 12.2842268,0"
         style="fill:none;stroke:#000000;stroke-width:0.69999999;stroke-linecap:butt;stroke-linejoin:miter;stroke-miterlimit:4;stroke-dasharray:none;stroke-opacity:1" />
      <path
         sodipodi:nodetypes="cscsc"
         inkscape:connector-curvature="0"
         id="path2531"
         d="m 16.418341,294.44866 c -2.2e-5,0.35226 -2.964704,1.03943 -5.835007,1.03943 -2.870304,0 -5.6696214,-0.66354 -5.6696432,-1.01581 -2.32e-5,-0.35227 2.8938015,-0.77958 5.7641372,-0.77958 2.870335,0 5.740536,0.40369 5.740513,0.75596 z"
         style="opacity:1;vector-effect:none;fill:#000000;fill-opacity:1;fill-rule:nonzero;stroke:none;stroke-width:0.69999999;stroke-linecap:butt;stroke-linejoin:miter;stroke-miterlimit:4;stroke-dasharray:none;stroke-dashoffset:0;stroke-opacity:1;paint-order:normal" />
      <path
         style="opacity:1;fill:#000000;fill-opacity:1;stroke:none;stroke-width:0.32664803;stroke-linecap:round;stroke-linejoin:round;stroke-miterlimit:4;stroke-dasharray:none;stroke-opacity:1;paint-order:normal"
         d="m 11.326938,282.87499 c 0.01945,-0.0561 0.02947,-0.11403 0.02975,-0.17234 1.7e-5,-0.35698 -0.356808,-0.64635 -0.796972,-0.64634 -0.440163,-10e-6 -0.7969892,0.28936 -0.7969721,0.64634 3.019e-4,0.0695 0.014419,0.13846 0.041797,0.2043 l 0.7551681,2.0508 z"
         id="path2534"
         inkscape:connector-curvature="0"
         sodipodi:nodetypes="ccccccc" />
    </g>
  </g>
</svg>
