<?xml version="1.0" encoding="UTF-8" standalone="no"?>
<!-- Created with Inkscape (http://www.inkscape.org/) -->

<svg
   xmlns:dc="http://purl.org/dc/elements/1.1/"
   xmlns:cc="http://creativecommons.org/ns#"
   xmlns:rdf="http://www.w3.org/1999/02/22-rdf-syntax-ns#"
   xmlns:svg="http://www.w3.org/2000/svg"
   xmlns="http://www.w3.org/2000/svg"
   xmlns:sodipodi="http://sodipodi.sourceforge.net/DTD/sodipodi-0.dtd"
   xmlns:inkscape="http://www.inkscape.org/namespaces/inkscape"
   width="73"
   height="73"
   viewBox="0 0 19.314583 19.314583"
   version="1.1"
   id="svg8"
   inkscape:version="0.92.4 5da689c313, 2019-01-14"
   sodipodi:docname="bn.svg"
   inkscape:export-filename="/home/loic/Documents/Git/manzerbredes/ochess/tools/skin/chesscom/bn.png"
   inkscape:export-xdpi="240"
   inkscape:export-ydpi="240">
  <defs
     id="defs2" />
  <sodipodi:namedview
     id="base"
     pagecolor="#ffffff"
     bordercolor="#666666"
     borderopacity="1.0"
     inkscape:pageopacity="0.0"
     inkscape:pageshadow="2"
     inkscape:zoom="3.959798"
     inkscape:cx="-8.5872427"
     inkscape:cy="34.109124"
     inkscape:document-units="mm"
     inkscape:current-layer="layer1"
     showgrid="false"
     inkscape:window-width="1908"
     inkscape:window-height="1131"
     inkscape:window-x="0"
     inkscape:window-y="35"
     inkscape:window-maximized="1"
     units="px"
     inkscape:snap-global="false" />
  <metadata
     id="metadata5">
    <rdf:RDF>
      <cc:Work
         rdf:about="">
        <dc:format>image/svg+xml</dc:format>
        <dc:type
           rdf:resource="http://purl.org/dc/dcmitype/StillImage" />
        <dc:title></dc:title>
      </cc:Work>
    </rdf:RDF>
  </metadata>
  <g
     inkscape:label="Calque 1"
     inkscape:groupmode="layer"
     id="layer1"
     transform="translate(-0.96789664,-276.34041)">
    <g
       id="g6370"
       transform="translate(0.04185493,-0.41895167)">
      <g
         transform="translate(3.0331515,0.19487873)"
         style="fill:#000000;fill-opacity:1;stroke:#000000;stroke-width:0.69999999;stroke-miterlimit:4;stroke-dasharray:none"
         id="g3954">
        <path
           id="path3917"
           style="opacity:1;vector-effect:none;fill:#000000;fill-opacity:1;stroke:#000000;stroke-width:0.69999999;stroke-linecap:round;stroke-linejoin:round;stroke-miterlimit:4;stroke-dasharray:none;stroke-dashoffset:0;stroke-opacity:1"
           d="M 16.725446,295.11011 H 3.6380208 c -0.2128826,-1.47281 0.3528384,-2.16701 0.8031993,-2.97657 l 3.0946802,-3.37816 c 0.1006699,-0.10989 0.6181408,-3.72358 0.5905878,-3.80338 -0.06093,-0.17652 -0.9112757,1.79841 -1.700893,2.36235 -0.5931368,0.42362 -1.9237669,0.35634 -2.5985861,0.99218 -0.3898889,0.36737 -0.6614584,1.46466 -0.6614584,1.46466 0,0 -0.6928829,1.118 -1.2992932,1.2048 -0.3770731,0.054 -0.90235777,-0.0737 -0.96856397,-0.44885 -0.0932284,-0.52823 1.22951857,-0.72684 1.03943457,-1.22842 -0.049034,-0.12939 -1.65364585,1.34654 -1.65364585,1.34654 -0.38854481,0.60048 -2.33374125,-1.96631 -1.93712795,-2.76395 0.1531432,-0.30799 2.50409221,-4.58296 2.50409221,-4.58296 l 0.42522319,-1.51191 1.0866816,-1.46465 -0.437035,-1.25205 -0.1181175,-1.73633 3.09468,1.84264 2.1851747,0.15355 c 10.0533746,-0.0497 9.9377346,12.02472 9.6383926,15.78051 z"
           inkscape:connector-curvature="0"
           sodipodi:nodetypes="ccccccccccccscccccccc" />
        <path
           style="opacity:1;vector-effect:none;fill:#000000;fill-opacity:1;stroke:#000000;stroke-width:0.69999999;stroke-linecap:round;stroke-linejoin:round;stroke-miterlimit:4;stroke-dasharray:none;stroke-dashoffset:0;stroke-opacity:1"
           d="m 3.9756341,280.07848 0.3173826,-1.38646 1.1860085,-1.23612 c 1.0515686,0.85819 1.3007969,2.0674 1.6704347,3.22394"
           id="path3934"
           inkscape:connector-curvature="0"
           sodipodi:nodetypes="cccc" />
      </g>
      <g
         transform="translate(3.0331515,0.19487873)"
         style="fill:#f0ecc8;fill-opacity:1;stroke:#f0ecc8;stroke-opacity:1"
         id="g3959">
        <ellipse
           style="opacity:1;vector-effect:none;fill:#d1cdae;fill-opacity:1;fill-rule:nonzero;stroke:#d1cdae;stroke-width:0.14782095px;stroke-linecap:round;stroke-linejoin:round;stroke-miterlimit:4;stroke-dasharray:none;stroke-dashoffset:0;stroke-opacity:1;paint-order:normal"
           id="path3941"
           cx="-201.97392"
           cy="205.59862"
           rx="0.51803327"
           ry="0.32665792"
           transform="rotate(-44.503376)" />
        <ellipse
           style="opacity:1;vector-effect:none;fill:#d1cdae;fill-opacity:1;fill-rule:nonzero;stroke:#d1cdae;stroke-width:0.2935563px;stroke-linecap:round;stroke-linejoin:round;stroke-miterlimit:4;stroke-dasharray:none;stroke-dashoffset:0;stroke-opacity:1;paint-order:normal"
           id="path3943"
           cx="3.3309152"
           cy="282.97943"
           rx="0.50523078"
           ry="0.51704252" />
        <path
           style="opacity:1;vector-effect:none;fill:#d1cdae;fill-opacity:1;stroke:#d1cdae;stroke-width:0.5;stroke-linecap:round;stroke-linejoin:round;stroke-miterlimit:4;stroke-dasharray:none;stroke-dashoffset:0;stroke-opacity:1"
           d="m 2.4568452,283.44009 c 0.3073947,-0.70242 0.7815238,-1.31221 1.6536457,-1.70089"
           id="path3945"
           inkscape:connector-curvature="0"
           sodipodi:nodetypes="cc" />
      </g>
      <path
         sodipodi:nodetypes="cc"
         inkscape:connector-curvature="0"
         id="path1814"
         d="m 10.797247,286.13792 c 0.275062,-0.5605 0.350612,-1.02617 0.358405,-1.63121"
         style="fill:#d1cdae;fill-opacity:1;stroke:#d1cdae;stroke-width:0.40000001;stroke-linecap:round;stroke-linejoin:round;stroke-miterlimit:4;stroke-dasharray:none;stroke-opacity:1" />
      <path
         inkscape:connector-curvature="0"
         id="path1816"
         d="m 3.9752267,290.52819 0.634766,-0.73499"
         style="opacity:1;vector-effect:none;fill:#d1cdae;fill-opacity:1;stroke:#d1cdae;stroke-width:0.40000001;stroke-linecap:round;stroke-linejoin:round;stroke-miterlimit:4;stroke-dasharray:none;stroke-dashoffset:0;stroke-opacity:1" />
      <path
         sodipodi:nodetypes="ccccccc"
         inkscape:connector-curvature="0"
         id="path1832"
         d="m 18.961195,294.87538 v -3.72024 c -0.137986,-5.99526 -2.443013,-10.71403 -8.519216,-10.99678 v 0.56795 c 4.952777,0.65486 6.612636,3.63461 7.294559,10.42883 v 3.72024 z"
         style="fill:#d1cdae;fill-opacity:1;stroke:#d1cdae;stroke-width:0.26458332px;stroke-linecap:butt;stroke-linejoin:miter;stroke-opacity:1" />
    </g>
  </g>
</svg>
